%YAML 1.1
%TAG !u! tag:unity3d.com,2011:
--- !u!1101 &-9109331372773416866
AnimatorStateTransition:
  m_ObjectHideFlags: 1
  m_CorrespondingSourceObject: {fileID: 0}
  m_PrefabInstance: {fileID: 0}
  m_PrefabAsset: {fileID: 0}
  m_Name: 
  m_Conditions:
  - m_ConditionMode: 1
    m_ConditionEvent: Selected
    m_EventTreshold: 0
  m_DstStateMachine: {fileID: 0}
  m_DstState: {fileID: 8534313832036551714}
  m_Solo: 0
  m_Mute: 0
  m_IsExit: 0
  serializedVersion: 3
  m_TransitionDuration: 0.25
  m_TransitionOffset: 0
  m_ExitTime: 0.75
  m_HasExitTime: 0
  m_HasFixedDuration: 1
  m_InterruptionSource: 0
  m_OrderedInterruption: 1
  m_CanTransitionToSelf: 1
--- !u!74 &-8392388993196677293
AnimationClip:
  m_ObjectHideFlags: 0
  m_CorrespondingSourceObject: {fileID: 0}
  m_PrefabInstance: {fileID: 0}
  m_PrefabAsset: {fileID: 0}
  m_Name: Highlighted
  serializedVersion: 6
  m_Legacy: 0
  m_Compressed: 0
  m_UseHighQualityCurve: 1
  m_RotationCurves: []
  m_CompressedRotationCurves: []
  m_EulerCurves: []
  m_PositionCurves: []
  m_ScaleCurves: []
  m_FloatCurves: []
  m_PPtrCurves:
  - curve:
    - time: 0
      value: {fileID: 21300000, guid: b4697c2461632ad4f943105edccde3c0, type: 3}
    - time: 0.04
      value: {fileID: 21300000, guid: e026b40ef852af14f835b6f4617060dd, type: 3}
    - time: 0.08
      value: {fileID: 21300000, guid: f44d419d6e686dc4badfdf1489429e8d, type: 3}
    - time: 0.12
      value: {fileID: 21300000, guid: a08b01f351c4d204aa36b7859f643673, type: 3}
    - time: 0.16
      value: {fileID: 21300000, guid: 4a9b576ff3b1e8f468a3ad463351f934, type: 3}
    - time: 0.2
      value: {fileID: 21300000, guid: ca5623df32e9af54f84d757eb5874f09, type: 3}
    - time: 0.24
      value: {fileID: 21300000, guid: 0d30df08a50dcc640bcdeff996f9b017, type: 3}
    - time: 0.28
      value: {fileID: 21300000, guid: ba800c01fc0ef9a498b393d86f6e3c85, type: 3}
    - time: 0.32
      value: {fileID: 21300000, guid: 50f21a6477653b44fb8ce074f5fc786a, type: 3}
    - time: 0.36
      value: {fileID: 21300000, guid: 555bd569ca8f6044782a677c55785522, type: 3}
    - time: 0.4
      value: {fileID: 21300000, guid: 64af13baeb3ae21418ccf36d53566917, type: 3}
    - time: 0.44
      value: {fileID: 21300000, guid: 6fc11b494b64a924d8d29e9062278ecc, type: 3}
    - time: 0.48
      value: {fileID: 21300000, guid: 5c544c8d26a6e8f4c8f22d308a61072e, type: 3}
    - time: 0.52
      value: {fileID: 21300000, guid: c38036048c09a484e9bdd6ca9b7d8900, type: 3}
    - time: 0.56
      value: {fileID: 21300000, guid: a387573a11e5e0b428d14035b6eeb66f, type: 3}
    - time: 0.6
      value: {fileID: 21300000, guid: 3ca0c38354b921545a4f499a804ead3b, type: 3}
    - time: 0.64
      value: {fileID: 21300000, guid: bd6f3f22af0d6974ba18c0bd1c138965, type: 3}
    - time: 0.68
      value: {fileID: 21300000, guid: 9327d872aca1c754c84e530fab2f75b0, type: 3}
    - time: 0.72
      value: {fileID: 21300000, guid: c7394431537696c4d82a8de284228993, type: 3}
    - time: 0.76
      value: {fileID: 21300000, guid: c7394431537696c4d82a8de284228993, type: 3}
    - time: 0.8
      value: {fileID: 21300000, guid: ec266e73cc3847a4e8535f0e3370033d, type: 3}
    - time: 0.84
      value: {fileID: 21300000, guid: de5882175fe07d74fb78a30d966da132, type: 3}
    - time: 0.88
      value: {fileID: 21300000, guid: 71f931065d57d5b46b282eea4359d67b, type: 3}
    - time: 0.92
      value: {fileID: 21300000, guid: a6d76714eed7e9a4b96cd1ea86514456, type: 3}
    - time: 0.96
      value: {fileID: 21300000, guid: 33ccd7a56fe67dd4c8d9aa97290f3eca, type: 3}
    - time: 1
      value: {fileID: 21300000, guid: dbdfc670c23ab634f82728cb41263e78, type: 3}
    - time: 1.04
      value: {fileID: 21300000, guid: de1e2b6d2a7a39d45aa774452a1dbd19, type: 3}
    - time: 1.08
      value: {fileID: 21300000, guid: 5c6fecf2082e21f4196bef04c9073d83, type: 3}
    - time: 1.12
      value: {fileID: 21300000, guid: da3e6962b1652964da4486a66d6dc20d, type: 3}
    - time: 1.16
      value: {fileID: 21300000, guid: 005413d7c681e0a46af0de47a01471d7, type: 3}
    attribute: m_Sprite
    path: 
    classID: 114
    script: {fileID: 11500000, guid: fe87c0e1cc204ed48ad3b37840f39efc, type: 3}
  m_SampleRate: 25
  m_WrapMode: 0
  m_Bounds:
    m_Center: {x: 0, y: 0, z: 0}
    m_Extent: {x: 0, y: 0, z: 0}
  m_ClipBindingConstant:
    genericBindings:
    - serializedVersion: 2
      path: 0
      attribute: 2015549526
      script: {fileID: 11500000, guid: fe87c0e1cc204ed48ad3b37840f39efc, type: 3}
      typeID: 114
      customType: 0
      isPPtrCurve: 1
    pptrCurveMapping:
    - {fileID: 21300000, guid: b4697c2461632ad4f943105edccde3c0, type: 3}
    - {fileID: 21300000, guid: e026b40ef852af14f835b6f4617060dd, type: 3}
    - {fileID: 21300000, guid: f44d419d6e686dc4badfdf1489429e8d, type: 3}
    - {fileID: 21300000, guid: a08b01f351c4d204aa36b7859f643673, type: 3}
    - {fileID: 21300000, guid: 4a9b576ff3b1e8f468a3ad463351f934, type: 3}
    - {fileID: 21300000, guid: ca5623df32e9af54f84d757eb5874f09, type: 3}
    - {fileID: 21300000, guid: 0d30df08a50dcc640bcdeff996f9b017, type: 3}
    - {fileID: 21300000, guid: ba800c01fc0ef9a498b393d86f6e3c85, type: 3}
    - {fileID: 21300000, guid: 50f21a6477653b44fb8ce074f5fc786a, type: 3}
    - {fileID: 21300000, guid: 555bd569ca8f6044782a677c55785522, type: 3}
    - {fileID: 21300000, guid: 64af13baeb3ae21418ccf36d53566917, type: 3}
    - {fileID: 21300000, guid: 6fc11b494b64a924d8d29e9062278ecc, type: 3}
    - {fileID: 21300000, guid: 5c544c8d26a6e8f4c8f22d308a61072e, type: 3}
    - {fileID: 21300000, guid: c38036048c09a484e9bdd6ca9b7d8900, type: 3}
    - {fileID: 21300000, guid: a387573a11e5e0b428d14035b6eeb66f, type: 3}
    - {fileID: 21300000, guid: 3ca0c38354b921545a4f499a804ead3b, type: 3}
    - {fileID: 21300000, guid: bd6f3f22af0d6974ba18c0bd1c138965, type: 3}
    - {fileID: 21300000, guid: 9327d872aca1c754c84e530fab2f75b0, type: 3}
    - {fileID: 21300000, guid: c7394431537696c4d82a8de284228993, type: 3}
    - {fileID: 21300000, guid: c7394431537696c4d82a8de284228993, type: 3}
    - {fileID: 21300000, guid: ec266e73cc3847a4e8535f0e3370033d, type: 3}
    - {fileID: 21300000, guid: de5882175fe07d74fb78a30d966da132, type: 3}
    - {fileID: 21300000, guid: 71f931065d57d5b46b282eea4359d67b, type: 3}
    - {fileID: 21300000, guid: a6d76714eed7e9a4b96cd1ea86514456, type: 3}
    - {fileID: 21300000, guid: 33ccd7a56fe67dd4c8d9aa97290f3eca, type: 3}
    - {fileID: 21300000, guid: dbdfc670c23ab634f82728cb41263e78, type: 3}
    - {fileID: 21300000, guid: de1e2b6d2a7a39d45aa774452a1dbd19, type: 3}
    - {fileID: 21300000, guid: 5c6fecf2082e21f4196bef04c9073d83, type: 3}
    - {fileID: 21300000, guid: da3e6962b1652964da4486a66d6dc20d, type: 3}
    - {fileID: 21300000, guid: 005413d7c681e0a46af0de47a01471d7, type: 3}
  m_AnimationClipSettings:
    serializedVersion: 2
    m_AdditiveReferencePoseClip: {fileID: 0}
    m_AdditiveReferencePoseTime: 0
    m_StartTime: 0
    m_StopTime: 1.1999999
    m_OrientationOffsetY: 0
    m_Level: 0
    m_CycleOffset: 0
    m_HasAdditiveReferencePose: 0
    m_LoopTime: 1
    m_LoopBlend: 0
    m_LoopBlendOrientation: 0
    m_LoopBlendPositionY: 0
    m_LoopBlendPositionXZ: 0
    m_KeepOriginalOrientation: 0
    m_KeepOriginalPositionY: 1
    m_KeepOriginalPositionXZ: 0
    m_HeightFromFeet: 0
    m_Mirror: 0
  m_EditorCurves: []
  m_EulerEditorCurves: []
  m_HasGenericRootTransform: 0
  m_HasMotionFloatCurves: 0
  m_Events: []
--- !u!1102 &-5125155740524401933
AnimatorState:
  serializedVersion: 6
  m_ObjectHideFlags: 1
  m_CorrespondingSourceObject: {fileID: 0}
  m_PrefabInstance: {fileID: 0}
  m_PrefabAsset: {fileID: 0}
  m_Name: Pressed
  m_Speed: 1
  m_CycleOffset: 0
  m_Transitions: []
  m_StateMachineBehaviours: []
  m_Position: {x: 50, y: 50, z: 0}
  m_IKOnFeet: 0
  m_WriteDefaultValues: 1
  m_Mirror: 0
  m_SpeedParameterActive: 0
  m_MirrorParameterActive: 0
  m_CycleOffsetParameterActive: 0
  m_TimeParameterActive: 0
  m_Motion: {fileID: -4149377385277185633}
  m_Tag: 
  m_SpeedParameter: 
  m_MirrorParameter: 
  m_CycleOffsetParameter: 
  m_TimeParameter: 
--- !u!1107 &-5002244480214464783
AnimatorStateMachine:
  serializedVersion: 6
  m_ObjectHideFlags: 1
  m_CorrespondingSourceObject: {fileID: 0}
  m_PrefabInstance: {fileID: 0}
  m_PrefabAsset: {fileID: 0}
  m_Name: Base Layer
  m_ChildStates:
  - serializedVersion: 1
    m_State: {fileID: 4491798922162139478}
    m_Position: {x: 200, y: 0, z: 0}
  - serializedVersion: 1
    m_State: {fileID: 6083480145478677338}
    m_Position: {x: 235, y: 65, z: 0}
  - serializedVersion: 1
    m_State: {fileID: -5125155740524401933}
    m_Position: {x: 270, y: 130, z: 0}
  - serializedVersion: 1
    m_State: {fileID: 8534313832036551714}
    m_Position: {x: 305, y: 195, z: 0}
  - serializedVersion: 1
    m_State: {fileID: -1303066782810333863}
    m_Position: {x: 340, y: 260, z: 0}
  m_ChildStateMachines: []
  m_AnyStateTransitions:
  - {fileID: -4845597377781176735}
  - {fileID: 6730141151643952583}
  - {fileID: 1390586672100805746}
  - {fileID: -9109331372773416866}
  - {fileID: 2486743372376907363}
  m_EntryTransitions: []
  m_StateMachineTransitions: {}
  m_StateMachineBehaviours: []
  m_AnyStatePosition: {x: 50, y: 20, z: 0}
  m_EntryPosition: {x: 50, y: 120, z: 0}
  m_ExitPosition: {x: 800, y: 120, z: 0}
  m_ParentStateMachinePosition: {x: 800, y: 20, z: 0}
  m_DefaultState: {fileID: 4491798922162139478}
--- !u!1101 &-4845597377781176735
AnimatorStateTransition:
  m_ObjectHideFlags: 1
  m_CorrespondingSourceObject: {fileID: 0}
  m_PrefabInstance: {fileID: 0}
  m_PrefabAsset: {fileID: 0}
  m_Name: 
  m_Conditions:
  - m_ConditionMode: 1
    m_ConditionEvent: Normal
    m_EventTreshold: 0
  m_DstStateMachine: {fileID: 0}
  m_DstState: {fileID: 4491798922162139478}
  m_Solo: 0
  m_Mute: 0
  m_IsExit: 0
  serializedVersion: 3
  m_TransitionDuration: 0.25
  m_TransitionOffset: 0
  m_ExitTime: 0.75
  m_HasExitTime: 0
  m_HasFixedDuration: 1
  m_InterruptionSource: 0
  m_OrderedInterruption: 1
  m_CanTransitionToSelf: 1
--- !u!74 &-4149377385277185633
AnimationClip:
  m_ObjectHideFlags: 0
  m_CorrespondingSourceObject: {fileID: 0}
  m_PrefabInstance: {fileID: 0}
  m_PrefabAsset: {fileID: 0}
  m_Name: Pressed
  serializedVersion: 6
  m_Legacy: 0
  m_Compressed: 0
  m_UseHighQualityCurve: 1
  m_RotationCurves: []
  m_CompressedRotationCurves: []
  m_EulerCurves: []
  m_PositionCurves: []
  m_ScaleCurves: []
  m_FloatCurves: []
  m_PPtrCurves:
  - curve:
    - time: 0
      value: {fileID: 21300000, guid: 0d527a9ea68a0ca468db657e093576dd, type: 3}
    - time: 0.04
      value: {fileID: 21300000, guid: 903140812c989ca4cb0e14009363881b, type: 3}
    - time: 0.08
      value: {fileID: 21300000, guid: a7578afef8c67dd4f8024024f86fd4bf, type: 3}
    - time: 0.12
      value: {fileID: 21300000, guid: 117c1e1dbcdba7442b866b9e8d639590, type: 3}
    - time: 0.16
      value: {fileID: 21300000, guid: 8d139957b0b0dc44da8a68738bd4852a, type: 3}
    - time: 0.2
      value: {fileID: 21300000, guid: 73aad3e483af6dc4598a996e2684d490, type: 3}
    - time: 0.24
      value: {fileID: 21300000, guid: 37df91085ce681f4eb64a9111cefeb00, type: 3}
    attribute: m_Sprite
    path: 
    classID: 114
    script: {fileID: 11500000, guid: fe87c0e1cc204ed48ad3b37840f39efc, type: 3}
  m_SampleRate: 25
  m_WrapMode: 0
  m_Bounds:
    m_Center: {x: 0, y: 0, z: 0}
    m_Extent: {x: 0, y: 0, z: 0}
  m_ClipBindingConstant:
    genericBindings:
    - serializedVersion: 2
      path: 0
      attribute: 2015549526
      script: {fileID: 11500000, guid: fe87c0e1cc204ed48ad3b37840f39efc, type: 3}
      typeID: 114
      customType: 0
      isPPtrCurve: 1
    pptrCurveMapping:
    - {fileID: 21300000, guid: 0d527a9ea68a0ca468db657e093576dd, type: 3}
    - {fileID: 21300000, guid: 903140812c989ca4cb0e14009363881b, type: 3}
    - {fileID: 21300000, guid: a7578afef8c67dd4f8024024f86fd4bf, type: 3}
    - {fileID: 21300000, guid: 117c1e1dbcdba7442b866b9e8d639590, type: 3}
    - {fileID: 21300000, guid: 8d139957b0b0dc44da8a68738bd4852a, type: 3}
    - {fileID: 21300000, guid: 73aad3e483af6dc4598a996e2684d490, type: 3}
    - {fileID: 21300000, guid: 37df91085ce681f4eb64a9111cefeb00, type: 3}
  m_AnimationClipSettings:
    serializedVersion: 2
    m_AdditiveReferencePoseClip: {fileID: 0}
    m_AdditiveReferencePoseTime: 0
    m_StartTime: 0
    m_StopTime: 0.28
    m_OrientationOffsetY: 0
    m_Level: 0
    m_CycleOffset: 0
    m_HasAdditiveReferencePose: 0
    m_LoopTime: 1
    m_LoopBlend: 0
    m_LoopBlendOrientation: 0
    m_LoopBlendPositionY: 0
    m_LoopBlendPositionXZ: 0
    m_KeepOriginalOrientation: 0
    m_KeepOriginalPositionY: 1
    m_KeepOriginalPositionXZ: 0
    m_HeightFromFeet: 0
    m_Mirror: 0
  m_EditorCurves: []
  m_EulerEditorCurves: []
  m_HasGenericRootTransform: 0
  m_HasMotionFloatCurves: 0
  m_Events: []
--- !u!1102 &-1303066782810333863
AnimatorState:
  serializedVersion: 6
  m_ObjectHideFlags: 1
  m_CorrespondingSourceObject: {fileID: 0}
  m_PrefabInstance: {fileID: 0}
  m_PrefabAsset: {fileID: 0}
  m_Name: Disabled
  m_Speed: 1
  m_CycleOffset: 0
  m_Transitions: []
  m_StateMachineBehaviours: []
  m_Position: {x: 50, y: 50, z: 0}
  m_IKOnFeet: 0
  m_WriteDefaultValues: 1
  m_Mirror: 0
  m_SpeedParameterActive: 0
  m_MirrorParameterActive: 0
  m_CycleOffsetParameterActive: 0
  m_TimeParameterActive: 0
  m_Motion: {fileID: 3383705454339672097}
  m_Tag: 
  m_SpeedParameter: 
  m_MirrorParameter: 
  m_CycleOffsetParameter: 
  m_TimeParameter: 
--- !u!91 &9100000
AnimatorController:
  m_ObjectHideFlags: 0
  m_CorrespondingSourceObject: {fileID: 0}
  m_PrefabInstance: {fileID: 0}
  m_PrefabAsset: {fileID: 0}
  m_Name: "\u5546\u5E97"
  serializedVersion: 5
  m_AnimatorParameters:
  - m_Name: Normal
    m_Type: 9
    m_DefaultFloat: 0
    m_DefaultInt: 0
    m_DefaultBool: 0
    m_Controller: {fileID: 9100000}
  - m_Name: Highlighted
    m_Type: 9
    m_DefaultFloat: 0
    m_DefaultInt: 0
    m_DefaultBool: 0
    m_Controller: {fileID: 9100000}
  - m_Name: Pressed
    m_Type: 9
    m_DefaultFloat: 0
    m_DefaultInt: 0
    m_DefaultBool: 0
    m_Controller: {fileID: 9100000}
  - m_Name: Selected
    m_Type: 9
    m_DefaultFloat: 0
    m_DefaultInt: 0
    m_DefaultBool: 0
    m_Controller: {fileID: 9100000}
  - m_Name: Disabled
    m_Type: 9
    m_DefaultFloat: 0
    m_DefaultInt: 0
    m_DefaultBool: 0
    m_Controller: {fileID: 9100000}
  m_AnimatorLayers:
  - serializedVersion: 5
    m_Name: Base Layer
    m_StateMachine: {fileID: -5002244480214464783}
    m_Mask: {fileID: 0}
    m_Motions: []
    m_Behaviours: []
    m_BlendingMode: 0
    m_SyncedLayerIndex: -1
    m_DefaultWeight: 0
    m_IKPass: 0
    m_SyncedLayerAffectsTiming: 0
    m_Controller: {fileID: 9100000}
--- !u!1101 &1390586672100805746
AnimatorStateTransition:
  m_ObjectHideFlags: 1
  m_CorrespondingSourceObject: {fileID: 0}
  m_PrefabInstance: {fileID: 0}
  m_PrefabAsset: {fileID: 0}
  m_Name: 
  m_Conditions:
  - m_ConditionMode: 1
    m_ConditionEvent: Pressed
    m_EventTreshold: 0
  m_DstStateMachine: {fileID: 0}
  m_DstState: {fileID: -5125155740524401933}
  m_Solo: 0
  m_Mute: 0
  m_IsExit: 0
  serializedVersion: 3
  m_TransitionDuration: 0.25
  m_TransitionOffset: 0
  m_ExitTime: 0.75
  m_HasExitTime: 0
  m_HasFixedDuration: 1
  m_InterruptionSource: 0
  m_OrderedInterruption: 1
  m_CanTransitionToSelf: 1
--- !u!1101 &2486743372376907363
AnimatorStateTransition:
  m_ObjectHideFlags: 1
  m_CorrespondingSourceObject: {fileID: 0}
  m_PrefabInstance: {fileID: 0}
  m_PrefabAsset: {fileID: 0}
  m_Name: 
  m_Conditions:
  - m_ConditionMode: 1
    m_ConditionEvent: Disabled
    m_EventTreshold: 0
  m_DstStateMachine: {fileID: 0}
  m_DstState: {fileID: -1303066782810333863}
  m_Solo: 0
  m_Mute: 0
  m_IsExit: 0
  serializedVersion: 3
  m_TransitionDuration: 0.25
  m_TransitionOffset: 0
  m_ExitTime: 0.75
  m_HasExitTime: 0
  m_HasFixedDuration: 1
  m_InterruptionSource: 0
  m_OrderedInterruption: 1
  m_CanTransitionToSelf: 1
--- !u!74 &2505591630260528200
AnimationClip:
  m_ObjectHideFlags: 0
  m_CorrespondingSourceObject: {fileID: 0}
  m_PrefabInstance: {fileID: 0}
  m_PrefabAsset: {fileID: 0}
  m_Name: Selected
  serializedVersion: 6
  m_Legacy: 0
  m_Compressed: 0
  m_UseHighQualityCurve: 1
  m_RotationCurves: []
  m_CompressedRotationCurves: []
  m_EulerCurves: []
  m_PositionCurves: []
  m_ScaleCurves: []
  m_FloatCurves: []
  m_PPtrCurves:
  - curve:
    - time: 0
      value: {fileID: 21300000, guid: 0c498c51f56c01040bce9efbf8f8d947, type: 3}
    - time: 0.04
      value: {fileID: 21300000, guid: fc2b77ef8ae9c4d42bd391f238ac4435, type: 3}
    - time: 0.08
      value: {fileID: 21300000, guid: 29852ff070dbef34da77a4cb9d8c11eb, type: 3}
    - time: 0.12
      value: {fileID: 21300000, guid: 2a38741e62ea36b45bd4e44372f915d5, type: 3}
    - time: 0.16
      value: {fileID: 21300000, guid: 0fb88448087f8be40be33fbb9e76b999, type: 3}
    - time: 0.2
      value: {fileID: 21300000, guid: db4ddf88beca5874ba2facce486d74ce, type: 3}
    - time: 0.24
      value: {fileID: 21300000, guid: b93009b62caa5dc4580108547890d803, type: 3}
    - time: 0.28
      value: {fileID: 21300000, guid: 8a1e5bed686ff5a4cac70989dfc3f0bb, type: 3}
    - time: 0.32
      value: {fileID: 21300000, guid: 2edbd461d505e494eb1cd5eda0a7fd32, type: 3}
    - time: 0.36
      value: {fileID: 21300000, guid: b2ed4eaaba49dab4da1266410845496d, type: 3}
    - time: 0.4
      value: {fileID: 21300000, guid: 869a3e4cc0d2cc549892cb48e8b50d52, type: 3}
    - time: 0.44
      value: {fileID: 21300000, guid: 8a15b5e0c81f7c7478008ecbe27f2f2a, type: 3}
    - time: 0.48
      value: {fileID: 21300000, guid: 49b2f78a173ddbe4393c99916a9809ea, type: 3}
    - time: 0.52
      value: {fileID: 21300000, guid: 0b17e6dbab7de9c4c9fb312b3febcf1f, type: 3}
    - time: 0.56
      value: {fileID: 21300000, guid: 936361b7cfcb9a24f9b68843588279fa, type: 3}
    - time: 0.6
      value: {fileID: 21300000, guid: f00bd22d9dada7d42bcc81e3d56ce085, type: 3}
    - time: 0.64
      value: {fileID: 21300000, guid: 617acb1403a50d748b21fc76b6060efe, type: 3}
    - time: 0.68
      value: {fileID: 21300000, guid: bc7daf0d5bf9cde47b9377dd611895bc, type: 3}
    - time: 0.72
      value: {fileID: 21300000, guid: 306c16de011489445934f6eccf9f4e9c, type: 3}
    - time: 0.76
      value: {fileID: 21300000, guid: e5a70a7a26412f4409e35a9d204815d1, type: 3}
    - time: 0.8
      value: {fileID: 21300000, guid: 1df7a65dfc1bb5d41bc5e310642ed5d0, type: 3}
    - time: 0.84
      value: {fileID: 21300000, guid: 3d3f31375e1365c439d71123e4c64b7a, type: 3}
    - time: 0.88
      value: {fileID: 21300000, guid: 265dcef7d5f1a2e40910e02896275ec7, type: 3}
    - time: 0.92
      value: {fileID: 21300000, guid: e83ea65cbcb084741b98ed6122e31c90, type: 3}
    - time: 0.96
      value: {fileID: 21300000, guid: 5ac41cc11144f2344b07bdb9ac29cf58, type: 3}
    - time: 1
      value: {fileID: 21300000, guid: 8a193b9ba886b3f42bdea362c1bb4408, type: 3}
    - time: 1.04
      value: {fileID: 21300000, guid: 1116b7cdef66ac7459ff2b9d872b281e, type: 3}
    - time: 1.08
      value: {fileID: 21300000, guid: d1cad85dc3a4fb04bacc0d619bc30baa, type: 3}
    attribute: m_Sprite
    path: 
    classID: 114
    script: {fileID: 11500000, guid: fe87c0e1cc204ed48ad3b37840f39efc, type: 3}
  m_SampleRate: 25
  m_WrapMode: 0
  m_Bounds:
    m_Center: {x: 0, y: 0, z: 0}
    m_Extent: {x: 0, y: 0, z: 0}
  m_ClipBindingConstant:
    genericBindings:
    - serializedVersion: 2
      path: 0
      attribute: 2015549526
      script: {fileID: 11500000, guid: fe87c0e1cc204ed48ad3b37840f39efc, type: 3}
      typeID: 114
      customType: 0
      isPPtrCurve: 1
    pptrCurveMapping:
    - {fileID: 21300000, guid: 0c498c51f56c01040bce9efbf8f8d947, type: 3}
    - {fileID: 21300000, guid: fc2b77ef8ae9c4d42bd391f238ac4435, type: 3}
    - {fileID: 21300000, guid: 29852ff070dbef34da77a4cb9d8c11eb, type: 3}
    - {fileID: 21300000, guid: 2a38741e62ea36b45bd4e44372f915d5, type: 3}
    - {fileID: 21300000, guid: 0fb88448087f8be40be33fbb9e76b999, type: 3}
    - {fileID: 21300000, guid: db4ddf88beca5874ba2facce486d74ce, type: 3}
    - {fileID: 21300000, guid: b93009b62caa5dc4580108547890d803, type: 3}
    - {fileID: 21300000, guid: 8a1e5bed686ff5a4cac70989dfc3f0bb, type: 3}
    - {fileID: 21300000, guid: 2edbd461d505e494eb1cd5eda0a7fd32, type: 3}
    - {fileID: 21300000, guid: b2ed4eaaba49dab4da1266410845496d, type: 3}
    - {fileID: 21300000, guid: 869a3e4cc0d2cc549892cb48e8b50d52, type: 3}
    - {fileID: 21300000, guid: 8a15b5e0c81f7c7478008ecbe27f2f2a, type: 3}
    - {fileID: 21300000, guid: 49b2f78a173ddbe4393c99916a9809ea, type: 3}
    - {fileID: 21300000, guid: 0b17e6dbab7de9c4c9fb312b3febcf1f, type: 3}
    - {fileID: 21300000, guid: 936361b7cfcb9a24f9b68843588279fa, type: 3}
    - {fileID: 21300000, guid: f00bd22d9dada7d42bcc81e3d56ce085, type: 3}
    - {fileID: 21300000, guid: 617acb1403a50d748b21fc76b6060efe, type: 3}
    - {fileID: 21300000, guid: bc7daf0d5bf9cde47b9377dd611895bc, type: 3}
    - {fileID: 21300000, guid: 306c16de011489445934f6eccf9f4e9c, type: 3}
    - {fileID: 21300000, guid: e5a70a7a26412f4409e35a9d204815d1, type: 3}
    - {fileID: 21300000, guid: 1df7a65dfc1bb5d41bc5e310642ed5d0, type: 3}
    - {fileID: 21300000, guid: 3d3f31375e1365c439d71123e4c64b7a, type: 3}
    - {fileID: 21300000, guid: 265dcef7d5f1a2e40910e02896275ec7, type: 3}
    - {fileID: 21300000, guid: e83ea65cbcb084741b98ed6122e31c90, type: 3}
    - {fileID: 21300000, guid: 5ac41cc11144f2344b07bdb9ac29cf58, type: 3}
    - {fileID: 21300000, guid: 8a193b9ba886b3f42bdea362c1bb4408, type: 3}
    - {fileID: 21300000, guid: 1116b7cdef66ac7459ff2b9d872b281e, type: 3}
    - {fileID: 21300000, guid: d1cad85dc3a4fb04bacc0d619bc30baa, type: 3}
  m_AnimationClipSettings:
    serializedVersion: 2
    m_AdditiveReferencePoseClip: {fileID: 0}
    m_AdditiveReferencePoseTime: 0
    m_StartTime: 0
    m_StopTime: 1.12
    m_OrientationOffsetY: 0
    m_Level: 0
    m_CycleOffset: 0
    m_HasAdditiveReferencePose: 0
    m_LoopTime: 1
    m_LoopBlend: 0
    m_LoopBlendOrientation: 0
    m_LoopBlendPositionY: 0
    m_LoopBlendPositionXZ: 0
    m_KeepOriginalOrientation: 0
    m_KeepOriginalPositionY: 1
    m_KeepOriginalPositionXZ: 0
    m_HeightFromFeet: 0
    m_Mirror: 0
  m_EditorCurves: []
  m_EulerEditorCurves: []
  m_HasGenericRootTransform: 0
  m_HasMotionFloatCurves: 0
  m_Events: []
--- !u!74 &3383705454339672097
AnimationClip:
  m_ObjectHideFlags: 0
  m_CorrespondingSourceObject: {fileID: 0}
  m_PrefabInstance: {fileID: 0}
  m_PrefabAsset: {fileID: 0}
  m_Name: Disabled
  serializedVersion: 6
  m_Legacy: 0
  m_Compressed: 0
  m_UseHighQualityCurve: 1
  m_RotationCurves: []
  m_CompressedRotationCurves: []
  m_EulerCurves: []
  m_PositionCurves: []
  m_ScaleCurves: []
  m_FloatCurves: []
  m_PPtrCurves: []
  m_SampleRate: 60
  m_WrapMode: 0
  m_Bounds:
    m_Center: {x: 0, y: 0, z: 0}
    m_Extent: {x: 0, y: 0, z: 0}
  m_ClipBindingConstant:
    genericBindings: []
    pptrCurveMapping: []
  m_AnimationClipSettings:
    serializedVersion: 2
    m_AdditiveReferencePoseClip: {fileID: 0}
    m_AdditiveReferencePoseTime: 0
    m_StartTime: 0
    m_StopTime: 1
    m_OrientationOffsetY: 0
    m_Level: 0
    m_CycleOffset: 0
    m_HasAdditiveReferencePose: 0
    m_LoopTime: 1
    m_LoopBlend: 0
    m_LoopBlendOrientation: 0
    m_LoopBlendPositionY: 0
    m_LoopBlendPositionXZ: 0
    m_KeepOriginalOrientation: 0
    m_KeepOriginalPositionY: 1
    m_KeepOriginalPositionXZ: 0
    m_HeightFromFeet: 0
    m_Mirror: 0
  m_EditorCurves: []
  m_EulerEditorCurves: []
  m_HasGenericRootTransform: 0
  m_HasMotionFloatCurves: 0
  m_Events: []
--- !u!1102 &4491798922162139478
AnimatorState:
  serializedVersion: 6
  m_ObjectHideFlags: 1
  m_CorrespondingSourceObject: {fileID: 0}
  m_PrefabInstance: {fileID: 0}
  m_PrefabAsset: {fileID: 0}
  m_Name: Normal
  m_Speed: 1
  m_CycleOffset: 0
  m_Transitions: []
  m_StateMachineBehaviours: []
  m_Position: {x: 50, y: 50, z: 0}
  m_IKOnFeet: 0
  m_WriteDefaultValues: 1
  m_Mirror: 0
  m_SpeedParameterActive: 0
  m_MirrorParameterActive: 0
  m_CycleOffsetParameterActive: 0
  m_TimeParameterActive: 0
  m_Motion: {fileID: 4697557578687595912}
  m_Tag: 
  m_SpeedParameter: 
  m_MirrorParameter: 
  m_CycleOffsetParameter: 
  m_TimeParameter: 
--- !u!74 &4697557578687595912
AnimationClip:
  m_ObjectHideFlags: 0
  m_CorrespondingSourceObject: {fileID: 0}
  m_PrefabInstance: {fileID: 0}
  m_PrefabAsset: {fileID: 0}
  m_Name: Normal
  serializedVersion: 6
  m_Legacy: 0
  m_Compressed: 0
  m_UseHighQualityCurve: 1
  m_RotationCurves: []
  m_CompressedRotationCurves: []
  m_EulerCurves: []
  m_PositionCurves: []
  m_ScaleCurves: []
  m_FloatCurves: []
  m_PPtrCurves: []
  m_SampleRate: 60
  m_WrapMode: 0
  m_Bounds:
    m_Center: {x: 0, y: 0, z: 0}
    m_Extent: {x: 0, y: 0, z: 0}
  m_ClipBindingConstant:
    genericBindings: []
    pptrCurveMapping: []
  m_AnimationClipSettings:
    serializedVersion: 2
    m_AdditiveReferencePoseClip: {fileID: 0}
    m_AdditiveReferencePoseTime: 0
    m_StartTime: 0
    m_StopTime: 1
    m_OrientationOffsetY: 0
    m_Level: 0
    m_CycleOffset: 0
    m_HasAdditiveReferencePose: 0
    m_LoopTime: 1
    m_LoopBlend: 0
    m_LoopBlendOrientation: 0
    m_LoopBlendPositionY: 0
    m_LoopBlendPositionXZ: 0
    m_KeepOriginalOrientation: 0
    m_KeepOriginalPositionY: 1
    m_KeepOriginalPositionXZ: 0
    m_HeightFromFeet: 0
    m_Mirror: 0
  m_EditorCurves: []
  m_EulerEditorCurves: []
  m_HasGenericRootTransform: 0
  m_HasMotionFloatCurves: 0
  m_Events: []
--- !u!1102 &6083480145478677338
AnimatorState:
  serializedVersion: 6
  m_ObjectHideFlags: 1
  m_CorrespondingSourceObject: {fileID: 0}
  m_PrefabInstance: {fileID: 0}
  m_PrefabAsset: {fileID: 0}
  m_Name: Highlighted
  m_Speed: 1
  m_CycleOffset: 0
  m_Transitions: []
  m_StateMachineBehaviours: []
  m_Position: {x: 50, y: 50, z: 0}
  m_IKOnFeet: 0
  m_WriteDefaultValues: 1
  m_Mirror: 0
  m_SpeedParameterActive: 0
  m_MirrorParameterActive: 0
  m_CycleOffsetParameterActive: 0
  m_TimeParameterActive: 0
  m_Motion: {fileID: -8392388993196677293}
  m_Tag: 
  m_SpeedParameter: 
  m_MirrorParameter: 
  m_CycleOffsetParameter: 
  m_TimeParameter: 
--- !u!1101 &6730141151643952583
AnimatorStateTransition:
  m_ObjectHideFlags: 1
  m_CorrespondingSourceObject: {fileID: 0}
  m_PrefabInstance: {fileID: 0}
  m_PrefabAsset: {fileID: 0}
  m_Name: 
  m_Conditions:
  - m_ConditionMode: 1
    m_ConditionEvent: Highlighted
    m_EventTreshold: 0
  m_DstStateMachine: {fileID: 0}
  m_DstState: {fileID: 6083480145478677338}
  m_Solo: 0
  m_Mute: 0
  m_IsExit: 0
  serializedVersion: 3
  m_TransitionDuration: 0.25
  m_TransitionOffset: 0
  m_ExitTime: 0.75
  m_HasExitTime: 0
  m_HasFixedDuration: 1
  m_InterruptionSource: 0
  m_OrderedInterruption: 1
  m_CanTransitionToSelf: 1
--- !u!1102 &8534313832036551714
AnimatorState:
  serializedVersion: 6
  m_ObjectHideFlags: 1
  m_CorrespondingSourceObject: {fileID: 0}
  m_PrefabInstance: {fileID: 0}
  m_PrefabAsset: {fileID: 0}
  m_Name: Selected
  m_Speed: 1
  m_CycleOffset: 0
  m_Transitions: []
  m_StateMachineBehaviours: []
  m_Position: {x: 50, y: 50, z: 0}
  m_IKOnFeet: 0
  m_WriteDefaultValues: 1
  m_Mirror: 0
  m_SpeedParameterActive: 0
  m_MirrorParameterActive: 0
  m_CycleOffsetParameterActive: 0
  m_TimeParameterActive: 0
  m_Motion: {fileID: 2505591630260528200}
  m_Tag: 
  m_SpeedParameter: 
  m_MirrorParameter: 
  m_CycleOffsetParameter: 
  m_TimeParameter: 
