%YAML 1.1
%TAG !u! tag:unity3d.com,2011:
--- !u!1 &8063291066193541084
GameObject:
  m_ObjectHideFlags: 0
  m_CorrespondingSourceObject: {fileID: 0}
  m_PrefabInstance: {fileID: 0}
  m_PrefabAsset: {fileID: 0}
  serializedVersion: 6
  m_Component:
  - component: {fileID: 8063291066193540899}
  - component: {fileID: 8063291066193540898}
  - component: {fileID: 8063291066193541085}
  - component: {fileID: 8063291066193540896}
  m_Layer: 6
  m_Name: Closed Sprite Shape (1)
  m_TagString: Untagged
  m_Icon: {fileID: 0}
  m_NavMeshLayer: 0
  m_StaticEditorFlags: 0
  m_IsActive: 1
--- !u!4 &8063291066193540899
Transform:
  m_ObjectHideFlags: 0
  m_CorrespondingSourceObject: {fileID: 0}
  m_PrefabInstance: {fileID: 0}
  m_PrefabAsset: {fileID: 0}
  m_GameObject: {fileID: 8063291066193541084}
  m_LocalRotation: {x: 0, y: 0, z: 0, w: 1}
  m_LocalPosition: {x: -27.33, y: -0.91, z: 0}
  m_LocalScale: {x: 1, y: 1, z: 1}
  m_Children: []
  m_Father: {fileID: 0}
  m_RootOrder: 0
  m_LocalEulerAnglesHint: {x: 0, y: 0, z: 0}
--- !u!1971053207 &8063291066193540898
SpriteShapeRenderer:
  m_ObjectHideFlags: 0
  m_CorrespondingSourceObject: {fileID: 0}
  m_PrefabInstance: {fileID: 0}
  m_PrefabAsset: {fileID: 0}
  m_GameObject: {fileID: 8063291066193541084}
  m_Enabled: 1
  m_CastShadows: 1
  m_ReceiveShadows: 1
  m_DynamicOccludee: 0
  m_MotionVectors: 1
  m_LightProbeUsage: 1
  m_ReflectionProbeUsage: 1
  m_RayTracingMode: 0
  m_RayTraceProcedural: 0
  m_RenderingLayerMask: 1
  m_RendererPriority: 0
  m_Materials:
  - {fileID: 2100000, guid: a97c105638bdf8b4a8650670310a4cd3, type: 2}
  - {fileID: 2100000, guid: a97c105638bdf8b4a8650670310a4cd3, type: 2}
  m_StaticBatchInfo:
    firstSubMesh: 0
    subMeshCount: 0
  m_StaticBatchRoot: {fileID: 0}
  m_ProbeAnchor: {fileID: 0}
  m_LightProbeVolumeOverride: {fileID: 0}
  m_ScaleInLightmap: 1
  m_ReceiveGI: 1
  m_PreserveUVs: 0
  m_IgnoreNormalsForChartDetection: 0
  m_ImportantGI: 0
  m_StitchLightmapSeams: 1
  m_SelectedEditorRenderState: 0
  m_MinimumChartSize: 4
  m_AutoUVMaxDistance: 0.5
  m_AutoUVMaxAngle: 89
  m_LightmapParameters: {fileID: 0}
  m_SortingLayerID: 300359341
  m_SortingLayer: 0
  m_SortingOrder: 0
  m_Color: {r: 1, g: 1, b: 1, a: 1}
  m_MaskInteraction: 0
  m_ShapeTexture: {fileID: 2800000, guid: 28aa9e0947056284e8df6742ebee5196, type: 3}
  m_Sprites:
  - {fileID: 21300000, guid: 6380d02bdf696b240ac5e42b41ac3005, type: 3}
  - {fileID: 21300000, guid: 608e61deb05c54660bebf5a4dd2ee02d, type: 3}
  - {fileID: 21300000, guid: 608e61deb05c54660bebf5a4dd2ee02d, type: 3}
  - {fileID: 21300000, guid: 608e61deb05c54660bebf5a4dd2ee02d, type: 3}
  - {fileID: 21300000, guid: 608e61deb05c54660bebf5a4dd2ee02d, type: 3}
  - {fileID: 21300000, guid: 608e61deb05c54660bebf5a4dd2ee02d, type: 3}
  - {fileID: 21300000, guid: 608e61deb05c54660bebf5a4dd2ee02d, type: 3}
  - {fileID: 21300000, guid: 608e61deb05c54660bebf5a4dd2ee02d, type: 3}
  - {fileID: 21300000, guid: 608e61deb05c54660bebf5a4dd2ee02d, type: 3}
  m_LocalAABB:
    m_Center: {x: 12.038292, y: -0.9571152, z: -0.00005}
    m_Extent: {x: 40.851936, y: 12.575466, z: 0.00005}
--- !u!114 &8063291066193541085
MonoBehaviour:
  m_ObjectHideFlags: 0
  m_CorrespondingSourceObject: {fileID: 0}
  m_PrefabInstance: {fileID: 0}
  m_PrefabAsset: {fileID: 0}
  m_GameObject: {fileID: 8063291066193541084}
  m_Enabled: 1
  m_EditorHideFlags: 0
  m_Script: {fileID: 11500000, guid: 90539df1cd5704abcb25fec9f3f5f84b, type: 3}
  m_Name: 
  m_EditorClassIdentifier: 
  m_Spline:
    m_IsOpenEnded: 0
    m_ControlPoints:
    - position: {x: -23.483053, y: -3.9186733, z: 0}
      leftTangent: {x: 0.5359764, y: -0.00048208237, z: 0}
      rightTangent: {x: -0.5359726, y: 0.00048208237, z: 0}
      mode: 1
      height: 1
      bevelCutoff: 0
      bevelSize: 0
      spriteIndex: 0
      corner: 1
      m_CornerMode: 1
    - position: {x: -22.944353, y: 6.731085, z: 0}
      leftTangent: {x: -1.0023308, y: 0.0010561943, z: 0}
      rightTangent: {x: 0.2553711, y: -0.00026893616, z: 0}
      mode: 1
      height: 1
      bevelCutoff: 0
      bevelSize: 0
      spriteIndex: 0
      corner: 1
      m_CornerMode: 1
    - position: {x: -15.844538, y: -1.7447789, z: 0}
      leftTangent: {x: -5.820053, y: -0.068939924, z: 0}
      rightTangent: {x: 3.594242, y: 0.042533875, z: 0}
      mode: 1
      height: 1
      bevelCutoff: 0
      bevelSize: 0
      spriteIndex: 0
      corner: 1
      m_CornerMode: 1
    - position: {x: 23.686459, y: -1.2529078, z: 0}
      leftTangent: {x: -2.9966087, y: -0.46967602, z: 0}
      rightTangent: {x: 4.1884727, y: 0.6564835, z: 0}
      mode: 1
      height: 1
      bevelCutoff: 0
      bevelSize: 0
      spriteIndex: 0
      corner: 1
      m_CornerMode: 1
    - position: {x: 33.253273, y: 2.5324678, z: 0}
      leftTangent: {x: -1.5151424, y: -0.57764006, z: 0}
      rightTangent: {x: 9.11586, y: 3.4753351, z: 0}
      mode: 1
      height: 1
      bevelCutoff: 0
      bevelSize: 0
      spriteIndex: 0
      corner: 1
      m_CornerMode: 1
    - position: {x: 47.684147, y: 5.9483237, z: 0}
      leftTangent: {x: -1.288208, y: -1.3729854, z: 0}
      rightTangent: {x: 2.2217407, y: 2.367947, z: 0}
      mode: 1
      height: 1
      bevelCutoff: 0
      bevelSize: 0
      spriteIndex: 0
      corner: 1
      m_CornerMode: 1
    - position: {x: 42.58989, y: -1.0155153, z: 0}
      leftTangent: {x: 1.2151184, y: 3.9716446, z: 0}
      rightTangent: {x: -0.99925995, y: -3.2661147, z: 0}
      mode: 1
      height: 1
      bevelCutoff: 0
      bevelSize: 0
      spriteIndex: 0
      corner: 1
      m_CornerMode: 1
    - position: {x: 38.35693, y: -3.5374048, z: 0}
      leftTangent: {x: 3.2290192, y: -0.1355462, z: 0}
      rightTangent: {x: -1.121254, y: 0.047067642, z: 0}
      mode: 1
      height: 2
      bevelCutoff: 0
      bevelSize: 0
      spriteIndex: 0
      corner: 1
      m_CornerMode: 1
    - position: {x: 6.667837, y: -3.7639987, z: 0}
      leftTangent: {x: 0.5439148, y: 0.0004234314, z: 0}
      rightTangent: {x: -0.5439148, y: -0.0004234314, z: 0}
      mode: 1
      height: 1
      bevelCutoff: 0
      bevelSize: 0
      spriteIndex: 0
      corner: 1
      m_CornerMode: 1
  m_SpriteShape: {fileID: 11400000, guid: fd0e5090e39b0324db096f95629d221f, type: 2}
  m_FillPixelPerUnit: 251.6
  m_StretchTiling: 1
  m_SplineDetail: 16
  m_AdaptiveUV: 1
  m_StretchUV: 0
  m_WorldSpaceUV: 0
  m_CornerAngleThreshold: 30
  m_ColliderDetail: 16
  m_ColliderOffset: -0.111
  m_UpdateCollider: 1
  m_OptimizeCollider: 1
  m_OptimizeGeometry: 1
  m_EnableTangents: 0
  m_GeometryCached: 0
  m_UTess2D: 0
--- !u!68 &8063291066193540896
EdgeCollider2D:
  m_ObjectHideFlags: 0
  m_CorrespondingSourceObject: {fileID: 0}
  m_PrefabInstance: {fileID: 0}
  m_PrefabAsset: {fileID: 0}
  m_GameObject: {fileID: 8063291066193541084}
  m_Enabled: 1
  m_Density: 1
  m_Material: {fileID: 0}
  m_IsTrigger: 0
  m_UsedByEffector: 0
  m_UsedByComposite: 0
  m_Offset: {x: 0, y: 0}
  m_EdgeRadius: 0.54
  m_Points:
  - {x: -23.482056, y: -2.8086734}
  - {x: -23.581043, y: -2.6728911}
  - {x: -22.56854, y: -3.2233698}
  - {x: -22.623123, y: -2.7160296}
  - {x: -22.667168, y: -1.9984695}
  - {x: -22.694572, y: -1.1343182}
  - {x: -22.703644, y: -0.16971904}
  - {x: -22.693495, y: 0.85361373}
  - {x: -22.663557, y: 1.8952774}
  - {x: -22.613428, y: 2.91493}
  - {x: -22.543053, y: 3.8713155}
  - {x: -22.453182, y: 4.7204685}
  - {x: -22.347374, y: 5.410864}
  - {x: -22.242645, y: 5.865211}
  - {x: -22.266762, y: 5.9009147}
  - {x: -23.178732, y: 5.6461124}
  - {x: -23.902561, y: 6.186059}
  - {x: -23.738499, y: 5.5544057}
  - {x: -23.566275, y: 4.9262114}
  - {x: -23.339693, y: 4.176779}
  - {x: -23.051062, y: 3.339635}
  - {x: -22.691298, y: 2.445413}
  - {x: -22.250008, y: 1.5237136}
  - {x: -21.715122, y: 0.6040228}
  - {x: -21.072546, y: -0.28302193}
  - {x: -20.306522, y: -1.1035964}
  - {x: -19.402006, y: -1.8180016}
  - {x: -18.463251, y: -2.3252606}
  - {x: -18.350231, y: -2.3795106}
  - {x: -17.155067, y: -2.7388997}
  - {x: -15.888794, y: -2.8538966}
  - {x: -14.74576, y: -2.846929}
  - {x: -10.6373205, y: -2.832375}
  - {x: -4.6600122, y: -2.812717}
  - {x: -1.234779, y: -2.7985206}
  - {x: 2.7145712, y: -2.7776623}
  - {x: 5.961931, y: -2.7564702}
  - {x: 9.522852, y: -2.7266455}
  - {x: 13.071226, y: -2.6874294}
  - {x: 16.044518, y: -2.644434}
  - {x: 18.796349, y: -2.590012}
  - {x: 21.072155, y: -2.525205}
  - {x: 22.779818, y: -2.4479795}
  - {x: 23.837795, y: -2.3525429}
  - {x: 24.75198, y: -2.1828156}
  - {x: 25.626747, y: -1.9706736}
  - {x: 26.478424, y: -1.7211189}
  - {x: 27.304115, y: -1.4417312}
  - {x: 28.10082, y: -1.139916}
  - {x: 28.865473, y: -0.8229592}
  - {x: 29.5948, y: -0.4980811}
  - {x: 30.285416, y: -0.17248255}
  - {x: 30.933662, y: 0.1466094}
  - {x: 32.581867, y: 0.99064344}
  - {x: 33.014126, y: 1.2080255}
  - {x: 33.430855, y: 1.4027252}
  - {x: 33.656944, y: 1.4984698}
  - {x: 35.36493, y: 2.1128974}
  - {x: 36.94851, y: 2.6146913}
  - {x: 38.40446, y: 3.0146744}
  - {x: 39.737957, y: 3.3267527}
  - {x: 40.954487, y: 3.5647478}
  - {x: 42.06003, y: 3.7423725}
  - {x: 43.115524, y: 3.8790421}
  - {x: 43.965073, y: 3.9708605}
  - {x: 45.51814, y: 4.1215506}
  - {x: 46.191216, y: 4.2047153}
  - {x: 46.816757, y: 4.31869}
  - {x: 47.41256, y: 4.493252}
  - {x: 47.983223, y: 4.7711134}
  - {x: 48.448082, y: 5.1430254}
  - {x: 48.8765, y: 5.6137824}
  - {x: 49.210327, y: 6.8648086}
  - {x: 47.90109, y: 7.6020107}
  - {x: 47.217865, y: 7.2128487}
  - {x: 46.85639, y: 6.8826694}
  - {x: 46.410423, y: 6.4432783}
  - {x: 45.887836, y: 5.898115}
  - {x: 45.308247, y: 5.2596493}
  - {x: 44.693398, y: 4.5419874}
  - {x: 44.03364, y: 3.7166622}
  - {x: 43.447296, y: 2.9257107}
  - {x: 42.861015, y: 2.0537724}
  - {x: 42.329403, y: 1.1546526}
  - {x: 41.875843, y: 0.23639011}
  - {x: 41.54002, y: -0.6551375}
  - {x: 41.23209, y: -1.2414398}
  - {x: 40.979324, y: -1.6819736}
  - {x: 40.768402, y: -2.0050805}
  - {x: 40.60405, y: -2.2014933}
  - {x: 40.502605, y: -2.264595}
  - {x: 40.489063, y: -2.2099411}
  - {x: 40.565136, y: -2.0969582}
  - {x: 40.703876, y: -1.938216}
  - {x: 40.61717, y: -1.8872087}
  - {x: 40.070988, y: -1.7247763}
  - {x: 39.632256, y: -1.6054621}
  - {x: 38.72025, y: -1.3805107}
  - {x: 38.42587, y: -1.3184758}
  - {x: 37.772587, y: -1.3328485}
  - {x: 36.498398, y: -1.379122}
  - {x: 34.671574, y: -1.4515773}
  - {x: 32.388, y: -1.5454932}
  - {x: 26.860733, y: -1.7789602}
  - {x: 20.743042, y: -2.0420117}
  - {x: 7.143548, y: -2.6335144}
  - {x: 6.6613655, y: -2.6540177}
  - {x: -20.199406, y: -2.7928271}
  - {x: -22.613573, y: -2.8048007}
  m_AdjacentStartPoint: {x: 0, y: 0}
  m_AdjacentEndPoint: {x: 0, y: 0}
  m_UseAdjacentStartPoint: 0
  m_UseAdjacentEndPoint: 0
