%YAML 1.1
%TAG !u! tag:unity3d.com,2011:
--- !u!1 &153766088806311052
GameObject:
  m_ObjectHideFlags: 0
  m_CorrespondingSourceObject: {fileID: 0}
  m_PrefabInstance: {fileID: 0}
  m_PrefabAsset: {fileID: 0}
  serializedVersion: 6
  m_Component:
  - component: {fileID: 153766088806311027}
  - component: {fileID: 153766088806311026}
  - component: {fileID: 153766088806311053}
  - component: {fileID: 153766088806311024}
  m_Layer: 6
  m_Name: Closed Sprite Shape (dj)2
  m_TagString: Untagged
  m_Icon: {fileID: 0}
  m_NavMeshLayer: 0
  m_StaticEditorFlags: 0
  m_IsActive: 1
--- !u!4 &153766088806311027
Transform:
  m_ObjectHideFlags: 0
  m_CorrespondingSourceObject: {fileID: 0}
  m_PrefabInstance: {fileID: 0}
  m_PrefabAsset: {fileID: 0}
  m_GameObject: {fileID: 153766088806311052}
  m_LocalRotation: {x: 0, y: 0, z: 0, w: 1}
  m_LocalPosition: {x: 233.4, y: -8.9, z: 0}
  m_LocalScale: {x: 1, y: 1, z: 1}
  m_Children: []
  m_Father: {fileID: 0}
  m_RootOrder: 0
  m_LocalEulerAnglesHint: {x: 0, y: 0, z: 0}
--- !u!1971053207 &153766088806311026
SpriteShapeRenderer:
  m_ObjectHideFlags: 0
  m_CorrespondingSourceObject: {fileID: 0}
  m_PrefabInstance: {fileID: 0}
  m_PrefabAsset: {fileID: 0}
  m_GameObject: {fileID: 153766088806311052}
  m_Enabled: 1
  m_CastShadows: 1
  m_ReceiveShadows: 1
  m_DynamicOccludee: 0
  m_MotionVectors: 1
  m_LightProbeUsage: 1
  m_ReflectionProbeUsage: 1
  m_RayTracingMode: 0
  m_RayTraceProcedural: 0
  m_RenderingLayerMask: 1
  m_RendererPriority: 0
  m_Materials:
  - {fileID: 2100000, guid: e92a95f39aca66b4eb4e767f4dcf74aa, type: 2}
  - {fileID: 2100000, guid: e92a95f39aca66b4eb4e767f4dcf74aa, type: 2}
  m_StaticBatchInfo:
    firstSubMesh: 0
    subMeshCount: 0
  m_StaticBatchRoot: {fileID: 0}
  m_ProbeAnchor: {fileID: 0}
  m_LightProbeVolumeOverride: {fileID: 0}
  m_ScaleInLightmap: 1
  m_ReceiveGI: 1
  m_PreserveUVs: 0
  m_IgnoreNormalsForChartDetection: 0
  m_ImportantGI: 0
  m_StitchLightmapSeams: 1
  m_SelectedEditorRenderState: 0
  m_MinimumChartSize: 4
  m_AutoUVMaxDistance: 0.5
  m_AutoUVMaxAngle: 89
  m_LightmapParameters: {fileID: 0}
  m_SortingLayerID: 612849905
  m_SortingLayer: 8
  m_SortingOrder: 1
  m_Color: {r: 1, g: 1, b: 1, a: 1}
  m_MaskInteraction: 0
  m_ShapeTexture: {fileID: 2800000, guid: 28aa9e0947056284e8df6742ebee5196, type: 3}
  m_Sprites:
  - {fileID: 21300000, guid: 608e61deb05c54660bebf5a4dd2ee02d, type: 3}
  - {fileID: 21300000, guid: 608e61deb05c54660bebf5a4dd2ee02d, type: 3}
  - {fileID: 21300000, guid: 608e61deb05c54660bebf5a4dd2ee02d, type: 3}
  - {fileID: 21300000, guid: 608e61deb05c54660bebf5a4dd2ee02d, type: 3}
  - {fileID: 21300000, guid: 608e61deb05c54660bebf5a4dd2ee02d, type: 3}
  - {fileID: 21300000, guid: 608e61deb05c54660bebf5a4dd2ee02d, type: 3}
  - {fileID: 21300000, guid: 608e61deb05c54660bebf5a4dd2ee02d, type: 3}
  - {fileID: 21300000, guid: 608e61deb05c54660bebf5a4dd2ee02d, type: 3}
  m_LocalAABB:
    m_Center: {x: 159.88063, y: -106.36159, z: 0}
    m_Extent: {x: 191.10895, y: 106.36159, z: 0}
--- !u!114 &153766088806311053
MonoBehaviour:
  m_ObjectHideFlags: 0
  m_CorrespondingSourceObject: {fileID: 0}
  m_PrefabInstance: {fileID: 0}
  m_PrefabAsset: {fileID: 0}
  m_GameObject: {fileID: 153766088806311052}
  m_Enabled: 1
  m_EditorHideFlags: 0
  m_Script: {fileID: 11500000, guid: 90539df1cd5704abcb25fec9f3f5f84b, type: 3}
  m_Name: 
  m_EditorClassIdentifier: 
  m_Spline:
    m_IsOpenEnded: 0
    m_ControlPoints:
    - position: {x: -28.814209, y: -212.72318, z: 0}
      leftTangent: {x: 0.28988647, y: -0.0002593994, z: 0}
      rightTangent: {x: -0.53596497, y: 0.00048828125, z: 0}
      mode: 1
      height: 1.24
      bevelCutoff: 0
      bevelSize: 0
      spriteIndex: 0
      corner: 1
      m_CornerMode: 1
    - position: {x: -27.418518, y: -9.419592, z: 0}
      leftTangent: {x: -7.3244324, y: -15.744457, z: 0}
      rightTangent: {x: 7.3244324, y: 15.744457, z: 0}
      mode: 1
      height: 1.24
      bevelCutoff: 0
      bevelSize: 0
      spriteIndex: 0
      corner: 1
      m_CornerMode: 1
    - position: {x: 36.229218, y: -73.19041, z: 0}
      leftTangent: {x: -30.193954, y: 0.3144226, z: 0}
      rightTangent: {x: 30.19394, y: -0.3144226, z: 0}
      mode: 1
      height: 1.24
      bevelCutoff: 0
      bevelSize: 0
      spriteIndex: 0
      corner: 1
      m_CornerMode: 1
    - position: {x: 185.77966, y: -152.3848, z: 0}
      leftTangent: {x: -50.022858, y: -0.81933594, z: 0}
      rightTangent: {x: 50.022858, y: 0.81933594, z: 0}
      mode: 1
      height: 1
      bevelCutoff: 0
      bevelSize: 0
      spriteIndex: 0
      corner: 1
      m_CornerMode: 1
    - position: {x: 350.98953, y: -204.39114, z: 0}
      leftTangent: {x: -6.530884, y: 0.17193604, z: 0}
      rightTangent: {x: 20.381042, y: -0.5365448, z: 0}
      mode: 1
      height: 1
      bevelCutoff: 0
      bevelSize: 0
      spriteIndex: 0
      corner: 1
      m_CornerMode: 1
  m_SpriteShape: {fileID: 11400000, guid: 5f7f6530bd2849d4eb082a7ca4f5c5f7, type: 2}
  m_FillPixelPerUnit: 251.6
  m_StretchTiling: 1
  m_SplineDetail: 16
  m_AdaptiveUV: 0
  m_StretchUV: 0
  m_WorldSpaceUV: 1
  m_CornerAngleThreshold: 30
  m_ColliderDetail: 16
  m_ColliderOffset: 0.457
  m_UpdateCollider: 1
  m_OptimizeCollider: 1
  m_OptimizeGeometry: 1
  m_EnableTangents: 0
  m_GeometryCached: 0
  m_UTess2D: 0
--- !u!68 &153766088806311024
EdgeCollider2D:
  m_ObjectHideFlags: 0
  m_CorrespondingSourceObject: {fileID: 0}
  m_PrefabInstance: {fileID: 0}
  m_PrefabAsset: {fileID: 0}
  m_GameObject: {fileID: 153766088806311052}
  m_Enabled: 1
  m_Density: 1
  m_Material: {fileID: 0}
  m_IsTrigger: 0
  m_UsedByEffector: 0
  m_UsedByComposite: 0
  m_Offset: {x: 0, y: 0}
  m_EdgeRadius: 0.54
  m_Points:
  - {x: -28.814209, y: -212.72318}
  - {x: -28.98095, y: -210.32878}
  - {x: -29.245972, y: -203.57172}
  - {x: -29.578014, y: -193.09091}
  - {x: -29.945848, y: -179.52516}
  - {x: -30.318218, y: -163.51338}
  - {x: -30.663906, y: -145.69453}
  - {x: -30.951632, y: -126.70736}
  - {x: -31.150187, y: -107.19088}
  - {x: -31.228313, y: -87.783905}
  - {x: -31.15477, y: -69.12536}
  - {x: -30.898315, y: -51.854084}
  - {x: -30.427704, y: -36.608986}
  - {x: -29.711697, y: -24.02895}
  - {x: -28.719048, y: -14.752857}
  - {x: -27.418518, y: -9.419592}
  - {x: -25.707266, y: -7.485132}
  - {x: -23.520758, y: -7.773514}
  - {x: -20.885191, y: -9.975702}
  - {x: -17.826777, y: -13.782661}
  - {x: -14.371715, y: -18.885359}
  - {x: -10.546221, y: -24.974762}
  - {x: -6.376486, y: -31.74183}
  - {x: -1.8887224, y: -38.87754}
  - {x: 2.8908653, y: -46.07285}
  - {x: 7.936071, y: -53.018723}
  - {x: 13.220691, y: -59.406128}
  - {x: 18.718521, y: -64.92604}
  - {x: 24.403355, y: -69.26941}
  - {x: 30.24899, y: -72.12721}
  - {x: 36.229218, y: -73.19041}
  - {x: 42.772552, y: -74.26438}
  - {x: 50.2557, y: -77.171005}
  - {x: 58.574745, y: -81.626015}
  - {x: 67.625786, y: -87.34516}
  - {x: 77.30489, y: -94.0441}
  - {x: 87.50818, y: -101.43864}
  - {x: 98.1317, y: -109.24444}
  - {x: 109.071594, y: -117.17729}
  - {x: 120.223885, y: -124.95288}
  - {x: 131.48471, y: -132.28694}
  - {x: 142.75012, y: -138.8952}
  - {x: 153.91626, y: -144.49338}
  - {x: 164.87917, y: -148.79723}
  - {x: 175.53493, y: -151.52246}
  - {x: 185.77966, y: -152.3848}
  - {x: 196.51839, y: -152.90251}
  - {x: 208.53487, y: -154.6578}
  - {x: 221.5433, y: -157.46234}
  - {x: 235.25795, y: -161.12773}
  - {x: 249.39293, y: -165.46555}
  - {x: 263.66254, y: -170.28758}
  - {x: 277.78088, y: -175.4053}
  - {x: 291.4623, y: -180.63048}
  - {x: 304.4209, y: -185.77466}
  - {x: 316.3709, y: -190.64952}
  - {x: 327.02655, y: -195.06671}
  - {x: 336.10205, y: -198.8378}
  - {x: 343.31155, y: -201.77449}
  - {x: 348.36932, y: -203.6884}
  - {x: 350.98953, y: -204.39114}
  - {x: 349.705, y: -204.5908}
  - {x: 338.67065, y: -204.95723}
  - {x: 319.34412, y: -205.46375}
  - {x: 293.1829, y: -206.08353}
  - {x: 261.64453, y: -206.7898}
  - {x: 226.18672, y: -207.5559}
  - {x: 188.26688, y: -208.3549}
  - {x: 149.3427, y: -209.16022}
  - {x: 110.871666, y: -209.94495}
  - {x: 74.311386, y: -210.68237}
  - {x: 41.119385, y: -211.3457}
  - {x: 12.75327, y: -211.90823}
  - {x: -9.3294115, y: -212.34319}
  - {x: -23.671091, y: -212.62373}
  - {x: -28.814209, y: -212.72318}
  m_AdjacentStartPoint: {x: 0, y: 0}
  m_AdjacentEndPoint: {x: 0, y: 0}
  m_UseAdjacentStartPoint: 0
  m_UseAdjacentEndPoint: 0
